   _____              _                                                         _  __          _    __
  / ____|            (_)                   /\                                  | |/ /         (_)  / _|
 | (___   __      __  _   ___   ___       /  \     _ __   _ __ ___    _   _    | ' /   _ __    _  | |_    ___
  \___ \  \ \ /\ / / | | / __| / __|     / /\ \   | '__| | '_ ` _ \  | | | |   |  <   | '_ \  | | |  _|  / _ \
  ____) |  \ V  V /  | | \__ \ \__ \    / ____ \  | |    | | | | | | | |_| |   | . \  | | | | | | | |   |  __/
 |_____/    \_/\_/   |_| |___/ |___/   /_/    \_\ |_|    |_| |_| |_|  \__, |   |_|\_\ |_| |_| |_| |_|    \___|
                                                                       __/ |
                                                                      |___/

Console Version 1.0
Rhino Javascript Engine version 1.7.7
Spring Shell 2.0.0

